{
  "project_info": {
    "project_number": "45484855909",
    "firebase_url": "https://pedime-app.firebaseio.com",
    "project_id": "pedime-app",
    "storage_bucket": "pedime-app.appspot.com"
  },
  "client": [
    {
      "client_info": {
        "mobilesdk_app_id": "1:45484855909:android:fd72234a8102b6011e6c8c",
        "android_client_info": {
          "package_name": "com.gzsoft.pedime"
        }
      },
      "oauth_client": [
        {
          "client_id": "45484855909-4ire23d4k2tf7df3c60rhnd32jd5flai.apps.googleusercontent.com",
          "client_type": 3
        }
      ],
      "api_key": [
        {
          "current_key": "AIzaSyCWgYR9RLV8nVn7JqqHhrOgXi0M5f8OGXs"
        }
      ],
      "services": {
        "appinvite_service": {
          "other_platform_oauth_client": [
            {
              "client_id": "45484855909-4ire23d4k2tf7df3c60rhnd32jd5flai.apps.googleusercontent.com",
              "client_type": 3
            }
          ]
        }
      }
    }
  ],
  "configuration_version": "1"
}